{
  "net_type": "SlicedNas",
  "new_layers": [],
  "checkpoint_path": "work/deprednet/Net_Factory/weights/nasnet-a_mobile_04_10_2017/model.ckpt",
  "Normalization": "",
  "output_layer": "Reduction_Cell_0",
  "Activation": "ELU",
  "l2_normalize_embeddings": true,
  "nasnet_logits_len": 1001,
  "embedding_len": 1001,
  "image_width": 240,
  "image_height": 240,
  "hn_cache_size": 500,
  "prev_cache_size": 10,
  "VARIABLES": "new_sliced_vars",
  "End_type": "VLAD",
  "preprocessing_params":
  {
    "random_crop_max_fraction": 0.1,
    "random_brightness_max_delta": 0.06,
    "random_hue_max_delta": 0.05,
    "random_saturation_limits": [0.5, 1.5],
    "random_contrast_limits": [0.8, 1.1]
  }
}

